[{"line":1,"elements":[{"line":4,"name":"Get all active users","description":"","id":"get-all-active-users","type":"scenario","keyword":"Scenario","steps":[{"name":"def query = {status : 'active', gender : 'female', id : 6798509}","result":{"duration":3674458,"status":"passed"},"match":{"location":"karate","arguments":[]},"keyword":"*","line":7},{"name":"url baseUrl + '\/public\/v1\/users'","result":{"duration":6288589,"status":"passed"},"match":{"location":"karate","arguments":[]},"keyword":"Given","line":10},{"name":"params query","result":{"duration":288061,"status":"passed"},"match":{"location":"karate","arguments":[]},"keyword":"And","line":11},{"name":"method GET","result":{"duration":1391835131,"status":"passed"},"match":{"location":"karate","arguments":[]},"keyword":"When","line":12,"doc_string":{"content_type":"","value":"19:28:35.147 request:\n1 > GET https:\/\/gorest.co.in\/public\/v1\/users?status=active&gender=female&id=6798509\n1 > Accept-Encoding: gzip,deflate\n1 > Connection: Keep-Alive\n1 > Host: gorest.co.in\n1 > User-Agent: Apache-HttpClient\/4.5.12 (Java\/11.0.17)\n\n19:28:36.265 response time in milliseconds: 1112.69\n1 < 200\n1 < CF-Cache-Status: DYNAMIC\n1 < CF-RAY: 8679d2a158fe3166-DFW\n1 < Cache-Control: max-age=0, private, must-revalidate\n1 < Connection: keep-alive\n1 < Content-Type: application\/json; charset=utf-8\n1 < Date: Thu, 21 Mar 2024 00:28:36 GMT\n1 < NEL: {\"success_fraction\":0,\"report_to\":\"cf-nel\",\"max_age\":604800}\n1 < Report-To: {\"endpoints\":[{\"url\":\"https:\\\/\\\/a.nel.cloudflare.com\\\/report\\\/v4?s=VvriUcB4avLVaR585CuO8l28Qp9jj0iOPPRC%2BuXVVdWsrInJG3QlqrLjDwKyOm9I79hIJ5B1TxiQq0FXR0lrYnKlRUbP%2FfqLI21NSOQa3Zik4f239YVIdWW%2BFh3t0DE%3D\"}],\"group\":\"cf-nel\",\"max_age\":604800}\n1 < Server: cloudflare\n1 < Transfer-Encoding: chunked\n1 < alt-svc: h3=\":443\"; ma=86400\n1 < etag: W\/\"7d0fad3944b5884d753950e7824069d3\"\n1 < referrer-policy: strict-origin-when-cross-origin\n1 < vary: Origin\n1 < x-content-type-options: nosniff\n1 < x-download-options: noopen\n1 < x-frame-options: SAMEORIGIN\n1 < x-permitted-cross-domain-policies: none\n1 < x-request-id: a312ca1f-eaf8-449c-9561-d9cb1a157a75\n1 < x-runtime: 0.025584\n1 < x-xss-protection: 0\n{\"meta\":{\"pagination\":{\"total\":0,\"pages\":0,\"page\":1,\"limit\":10,\"links\":{\"previous\":null,\"current\":null,\"next\":null}}},\"data\":[]}","line":12}},{"name":"status 200","result":{"duration":36256,"status":"passed"},"match":{"location":"karate","arguments":[]},"keyword":"Then","line":13},{"name":"print response","result":{"duration":750895,"status":"passed"},"match":{"location":"karate","arguments":[]},"keyword":"*","line":14,"doc_string":{"content_type":"","value":"19:28:36.269 [print] {\n  \"data\": [\n  ],\n  \"meta\": {\n    \"pagination\": {\n      \"total\": 0,\n      \"pages\": 0,\n      \"limit\": 10,\n      \"links\": {\n        \"next\": null,\n        \"current\": null,\n        \"previous\": null\n      },\n      \"page\": 1\n    }\n  }\n}","line":14}}]},{"line":17,"name":"Get all active users and get the count","description":"","id":"get-all-active-users-and-get-the-count","type":"scenario","keyword":"Scenario","steps":[{"name":"def query = {status : 'active'}","result":{"duration":320916,"status":"passed"},"match":{"location":"karate","arguments":[]},"keyword":"*","line":19},{"name":"url baseUrl + '\/public\/v1\/users'","result":{"duration":2105050,"status":"passed"},"match":{"location":"karate","arguments":[]},"keyword":"Given","line":22},{"name":"params query","result":{"duration":2213242,"status":"passed"},"match":{"location":"karate","arguments":[]},"keyword":"And","line":23},{"name":"method GET","result":{"duration":995263261,"status":"passed"},"match":{"location":"karate","arguments":[]},"keyword":"When","line":24,"doc_string":{"content_type":"","value":"19:28:36.294 request:\n1 > GET https:\/\/gorest.co.in\/public\/v1\/users?status=active\n1 > Accept-Encoding: gzip,deflate\n1 > Connection: Keep-Alive\n1 > Host: gorest.co.in\n1 > User-Agent: Apache-HttpClient\/4.5.12 (Java\/11.0.17)\n\n19:28:37.285 response time in milliseconds: 989.51\n1 < 200\n1 < CF-Cache-Status: DYNAMIC\n1 < CF-RAY: 8679d2a75e876b9d-DFW\n1 < Cache-Control: max-age=0, private, must-revalidate\n1 < Connection: keep-alive\n1 < Content-Type: application\/json; charset=utf-8\n1 < Date: Thu, 21 Mar 2024 00:28:37 GMT\n1 < NEL: {\"success_fraction\":0,\"report_to\":\"cf-nel\",\"max_age\":604800}\n1 < Report-To: {\"endpoints\":[{\"url\":\"https:\\\/\\\/a.nel.cloudflare.com\\\/report\\\/v4?s=oO4lf5Aml9TdNeC0D5sYr5F%2B%2BJpZ8XDhoKKyuV0qkk8gUhtg%2B2SkWza%2FaZOP7vPwg%2BqI2zvuo5uysdZ53LZzA07NuekijZmAvMuidOujQxtjWvVfYWCehWkgBpBvA1c%3D\"}],\"group\":\"cf-nel\",\"max_age\":604800}\n1 < Server: cloudflare\n1 < Transfer-Encoding: chunked\n1 < alt-svc: h3=\":443\"; ma=86400\n1 < etag: W\/\"aeb1778759527fc3aa75dccf5447f1cb\"\n1 < referrer-policy: strict-origin-when-cross-origin\n1 < vary: Origin\n1 < x-content-type-options: nosniff\n1 < x-download-options: noopen\n1 < x-frame-options: SAMEORIGIN\n1 < x-permitted-cross-domain-policies: none\n1 < x-request-id: ce703ef3-0632-434c-9bce-bb9602badb29\n1 < x-runtime: 0.038345\n1 < x-xss-protection: 0\n{\"meta\":{\"pagination\":{\"total\":1466,\"pages\":147,\"page\":1,\"limit\":10,\"links\":{\"previous\":null,\"current\":\"https:\/\/gorest.co.in\/public\/v1\/users?page=1\",\"next\":\"https:\/\/gorest.co.in\/public\/v1\/users?page=2\"}}},\"data\":[{\"id\":6798516,\"name\":\"Mr. Ekaparnika Nayar\",\"email\":\"mr_nayar_ekaparnika@waelchi.example\",\"gender\":\"male\",\"status\":\"active\"},{\"id\":6798511,\"name\":\"Tanushree Nair\",\"email\":\"tanushree_nair@hahn-toy.test\",\"gender\":\"male\",\"status\":\"active\"},{\"id\":6798508,\"name\":\"Chiranjeeve Patel Esq.\",\"email\":\"chiranjeeve_patel_esq@lowe.example\",\"gender\":\"female\",\"status\":\"active\"},{\"id\":6798504,\"name\":\"Prathamesh Bhat\",\"email\":\"bhat_prathamesh@christiansen.example\",\"gender\":\"female\",\"status\":\"active\"},{\"id\":6798495,\"name\":\"Kali Kaniyar\",\"email\":\"kaniyar_kali@ortiz.test\",\"gender\":\"male\",\"status\":\"active\"},{\"id\":6798493,\"name\":\"Daevika Varman\",\"email\":\"varman_daevika@will.test\",\"gender\":\"male\",\"status\":\"active\"},{\"id\":6798492,\"name\":\"Govinda Gandhi\",\"email\":\"gandhi_govinda@green.test\",\"gender\":\"male\",\"status\":\"active\"},{\"id\":6798491,\"name\":\"Dr. Deenabandhu Ahluwalia\",\"email\":\"dr_ahluwalia_deenabandhu@parker-fahey.example\",\"gender\":\"male\",\"status\":\"active\"},{\"id\":6798489,\"name\":\"Ambar Kapoor\",\"email\":\"ambar_kapoor@powlowski.example\",\"gender\":\"male\",\"status\":\"active\"},{\"id\":6798488,\"name\":\"Balaaditya Sethi\",\"email\":\"sethi_balaaditya@morar-bailey.test\",\"gender\":\"female\",\"status\":\"active\"}]}","line":24}},{"name":"status 200","result":{"duration":10279,"status":"passed"},"match":{"location":"karate","arguments":[]},"keyword":"Then","line":25},{"name":"def jsonResponse = response","result":{"duration":30913,"status":"passed"},"match":{"location":"karate","arguments":[]},"keyword":"*","line":26},{"name":"print jsonResponse","result":{"duration":1148261,"status":"passed"},"match":{"location":"karate","arguments":[]},"keyword":"*","line":27,"doc_string":{"content_type":"","value":"19:28:37.288 [print] {\n  \"data\": [\n    {\n      \"gender\": \"male\",\n      \"name\": \"Mr. Ekaparnika Nayar\",\n      \"id\": 6798516,\n      \"email\": \"mr_nayar_ekaparnika@waelchi.example\",\n      \"status\": \"active\"\n    },\n    {\n      \"gender\": \"male\",\n      \"name\": \"Tanushree Nair\",\n      \"id\": 6798511,\n      \"email\": \"tanushree_nair@hahn-toy.test\",\n      \"status\": \"active\"\n    },\n    {\n      \"gender\": \"female\",\n      \"name\": \"Chiranjeeve Patel Esq.\",\n      \"id\": 6798508,\n      \"email\": \"chiranjeeve_patel_esq@lowe.example\",\n      \"status\": \"active\"\n    },\n    {\n      \"gender\": \"female\",\n      \"name\": \"Prathamesh Bhat\",\n      \"id\": 6798504,\n      \"email\": \"bhat_prathamesh@christiansen.example\",\n      \"status\": \"active\"\n    },\n    {\n      \"gender\": \"male\",\n      \"name\": \"Kali Kaniyar\",\n      \"id\": 6798495,\n      \"email\": \"kaniyar_kali@ortiz.test\",\n      \"status\": \"active\"\n    },\n    {\n      \"gender\": \"male\",\n      \"name\": \"Daevika Varman\",\n      \"id\": 6798493,\n      \"email\": \"varman_daevika@will.test\",\n      \"status\": \"active\"\n    },\n    {\n      \"gender\": \"male\",\n      \"name\": \"Govinda Gandhi\",\n      \"id\": 6798492,\n      \"email\": \"gandhi_govinda@green.test\",\n      \"status\": \"active\"\n    },\n    {\n      \"gender\": \"male\",\n      \"name\": \"Dr. Deenabandhu Ahluwalia\",\n      \"id\": 6798491,\n      \"email\": \"dr_ahluwalia_deenabandhu@parker-fahey.example\",\n      \"status\": \"active\"\n    },\n    {\n      \"gender\": \"male\",\n      \"name\": \"Ambar Kapoor\",\n      \"id\": 6798489,\n      \"email\": \"ambar_kapoor@powlowski.example\",\n      \"status\": \"active\"\n    },\n    {\n      \"gender\": \"female\",\n      \"name\": \"Balaaditya Sethi\",\n      \"id\": 6798488,\n      \"email\": \"sethi_balaaditya@morar-bailey.test\",\n      \"status\": \"active\"\n    }\n  ],\n  \"meta\": {\n    \"pagination\": {\n      \"total\": 1466,\n      \"pages\": 147,\n      \"limit\": 10,\n      \"links\": {\n        \"next\": \"https:\/\/gorest.co.in\/public\/v1\/users?page=2\",\n        \"current\": \"https:\/\/gorest.co.in\/public\/v1\/users?page=1\",\n        \"previous\": null\n      },\n      \"page\": 1\n    }\n  }\n}","line":27}},{"name":"def userCount = jsonResponse.data.length ","result":{"duration":22596761,"status":"passed"},"match":{"location":"karate","arguments":[]},"keyword":"*","line":28},{"name":"print userCount","result":{"duration":393481,"status":"passed"},"match":{"location":"karate","arguments":[]},"keyword":"*","line":29,"doc_string":{"content_type":"","value":"19:28:37.312 [print] 10","line":29}},{"name":"match userCount == 10","result":{"duration":7038883,"status":"passed"},"match":{"location":"karate","arguments":[]},"keyword":"*","line":30}]}],"name":"src\/test\/java\/features\/getAPIwithQuery.feature","description":"GET API with Query Parameters","id":"get-api-with-query-parameters","keyword":"Feature","uri":"src\/test\/java\/features\/getAPIwithQuery.feature"}]